fpga_proj/simulation/qsim/test.msim.vcd
$comment
	File created using the following command:
		vcd file test.msim.vcd -direction
$end
$date
	Sun Jul 02 15:54:45 2017
$end
$version
	ModelSim Version 10.5b
$end
$timescale
	1ps
$end

$scope module divider_vlg_vec_tst $end
$var reg 1 ! clk_in $end
$var wire 1 " clk_out $end

$scope module i1 $end
$var wire 1 # gnd $end
$var wire 1 $ vcc $end
$var wire 1 % unknown $end
$var tri1 1 & devclrn $end
$var tri1 1 ' devpor $end
$var tri1 1 ( devoe $end
$var wire 1 ) ~QUARTUS_CREATED_GND~I_combout $end
$var wire 1 * ~QUARTUS_CREATED_UNVM~~busy $end
$var wire 1 + ~QUARTUS_CREATED_ADC1~~eoc $end
$var wire 1 , clk_out~output_o $end
$var wire 1 - clk_in~input_o $end
$var wire 1 . Add0~0_combout $end
$var wire 1 / counter~1_combout $end
$var wire 1 0 Add0~1 $end
$var wire 1 1 Add0~2_combout $end
$var wire 1 2 Add0~3 $end
$var wire 1 3 Add0~4_combout $end
$var wire 1 4 counter~0_combout $end
$var wire 1 5 Add0~5 $end
$var wire 1 6 Add0~6_combout $end
$var wire 1 7 Add0~7 $end
$var wire 1 8 Add0~8_combout $end
$var wire 1 9 Add0~9 $end
$var wire 1 : Add0~10_combout $end
$var wire 1 ; Add0~11 $end
$var wire 1 < Add0~12_combout $end
$var wire 1 = Add0~13 $end
$var wire 1 > Add0~14_combout $end
$var wire 1 ? Add0~15 $end
$var wire 1 @ Add0~16_combout $end
$var wire 1 A Add0~17 $end
$var wire 1 B Add0~18_combout $end
$var wire 1 C Add0~19 $end
$var wire 1 D Add0~20_combout $end
$var wire 1 E Add0~21 $end
$var wire 1 F Add0~22_combout $end
$var wire 1 G Add0~23 $end
$var wire 1 H Add0~24_combout $end
$var wire 1 I Add0~25 $end
$var wire 1 J Add0~26_combout $end
$var wire 1 K Add0~27 $end
$var wire 1 L Add0~28_combout $end
$var wire 1 M Add0~29 $end
$var wire 1 N Add0~30_combout $end
$var wire 1 O Add0~31 $end
$var wire 1 P Add0~32_combout $end
$var wire 1 Q Add0~33 $end
$var wire 1 R Add0~34_combout $end
$var wire 1 S Add0~35 $end
$var wire 1 T Add0~36_combout $end
$var wire 1 U Add0~37 $end
$var wire 1 V Add0~38_combout $end
$var wire 1 W Add0~39 $end
$var wire 1 X Add0~40_combout $end
$var wire 1 Y Add0~41 $end
$var wire 1 Z Add0~42_combout $end
$var wire 1 [ Add0~43 $end
$var wire 1 \ Add0~44_combout $end
$var wire 1 ] Add0~45 $end
$var wire 1 ^ Add0~46_combout $end
$var wire 1 _ Add0~47 $end
$var wire 1 ` Add0~48_combout $end
$var wire 1 a Add0~49 $end
$var wire 1 b Add0~50_combout $end
$var wire 1 c Add0~51 $end
$var wire 1 d Add0~52_combout $end
$var wire 1 e Add0~53 $end
$var wire 1 f Add0~54_combout $end
$var wire 1 g Equal0~8_combout $end
$var wire 1 h Equal0~2_combout $end
$var wire 1 i Equal0~3_combout $end
$var wire 1 j Equal0~1_combout $end
$var wire 1 k Equal0~0_combout $end
$var wire 1 l Equal0~4_combout $end
$var wire 1 m Add0~55 $end
$var wire 1 n Add0~56_combout $end
$var wire 1 o Add0~57 $end
$var wire 1 p Add0~58_combout $end
$var wire 1 q Add0~59 $end
$var wire 1 r Add0~60_combout $end
$var wire 1 s Add0~61 $end
$var wire 1 t Add0~62_combout $end
$var wire 1 u Equal0~9_combout $end
$var wire 1 v Equal0~5_combout $end
$var wire 1 w Equal0~6_combout $end
$var wire 1 x Equal0~7_combout $end
$var wire 1 y Equal0~10_combout $end
$var wire 1 z clk_out~0_combout $end
$var wire 1 { clk_out~reg0_q $end
$var wire 1 | counter [31] $end
$var wire 1 } counter [30] $end
$var wire 1 ~ counter [29] $end
$var wire 1 !! counter [28] $end
$var wire 1 "! counter [27] $end
$var wire 1 #! counter [26] $end
$var wire 1 $! counter [25] $end
$var wire 1 %! counter [24] $end
$var wire 1 &! counter [23] $end
$var wire 1 '! counter [22] $end
$var wire 1 (! counter [21] $end
$var wire 1 )! counter [20] $end
$var wire 1 *! counter [19] $end
$var wire 1 +! counter [18] $end
$var wire 1 ,! counter [17] $end
$var wire 1 -! counter [16] $end
$var wire 1 .! counter [15] $end
$var wire 1 /! counter [14] $end
$var wire 1 0! counter [13] $end
$var wire 1 1! counter [12] $end
$var wire 1 2! counter [11] $end
$var wire 1 3! counter [10] $end
$var wire 1 4! counter [9] $end
$var wire 1 5! counter [8] $end
$var wire 1 6! counter [7] $end
$var wire 1 7! counter [6] $end
$var wire 1 8! counter [5] $end
$var wire 1 9! counter [4] $end
$var wire 1 :! counter [3] $end
$var wire 1 ;! counter [2] $end
$var wire 1 <! counter [1] $end
$var wire 1 =! counter [0] $end
$upscope $end
$upscope $end
$enddefinitions $end
#0
$dumpvars
0!
0"
0#
1$
x%
1&
1'
1(
0)
z*
z+
0,
0-
1.
1/
00
01
12
03
04
05
06
17
08
09
0:
1;
0<
0=
0>
1?
0@
0A
0B
1C
0D
0E
0F
1G
0H
0I
0J
1K
0L
0M
0N
1O
0P
0Q
0R
1S
0T
0U
0V
1W
0X
0Y
0Z
1[
0\
0]
0^
1_
0`
0a
0b
1c
0d
0e
0f
1g
1h
1i
1j
0k
0l
1m
0n
0o
0p
1q
0r
0s
0t
1u
1v
1w
1x
0y
0z
0{
0=!
0<!
0;!
0:!
09!
08!
07!
06!
05!
04!
03!
02!
01!
00!
0/!
0.!
0-!
0,!
0+!
0*!
0)!
0(!
0'!
0&!
0%!
0$!
0#!
0"!
0!!
0~
0}
0|
$end
#10000
1!
1-
1=!
10
0.
11
0/
#20000
0!
0-
#30000
1!
1-
1<!
0=!
02
00
1.
01
13
12
11
1/
03
14
04
#40000
0!
0-
#50000
1!
1-
1=!
10
0.
02
01
0/
13
14
#60000
0!
0-
#70000
1!
1-
1;!
0<!
0=!
1k
15
03
12
00
1.
11
1l
05
13
16
04
01
1/
1y
06
14
1z
04
0/
#80000
0!
0-
#90000
1!
1-
0;!
1{
1,
0k
03
1"
0z
0l
0y
1z
1/
#100000
0!
0-
#110000
1!
1-
1=!
10
0.
11
0/
#120000
0!
0-
#130000
1!
1-
1<!
0=!
02
00
1.
01
13
12
11
1/
03
14
04
#140000
0!
0-
#150000
1!
1-
1=!
10
0.
02
01
0/
13
14
#160000
0!
0-
#170000
1!
1-
1;!
0<!
0=!
1k
15
03
12
00
1.
11
1l
05
13
16
04
01
1/
1y
06
14
0z
04
0/
#180000
0!
0-
#190000
1!
1-
0;!
0{
0,
0k
03
0"
1z
0l
0y
0z
1/
#200000
0!
0-
#210000
1!
1-
1=!
10
0.
11
0/
#220000
0!
0-
#230000
1!
1-
1<!
0=!
02
00
1.
01
13
12
11
1/
03
14
04
#240000
0!
0-
#250000
1!
1-
1=!
10
0.
02
01
0/
13
14
#260000
0!
0-
#270000
1!
1-
1;!
0<!
0=!
1k
15
03
12
00
1.
11
1l
05
13
16
04
01
1/
1y
06
14
1z
04
0/
#280000
0!
0-
#290000
1!
1-
0;!
1{
1,
0k
03
1"
0z
0l
0y
1z
1/
#300000
0!
0-
#310000
1!
1-
1=!
10
0.
11
0/
#320000
0!
0-
#330000
1!
1-
1<!
0=!
02
00
1.
01
13
12
11
1/
03
14
04
#340000
0!
0-
#350000
1!
1-
1=!
10
0.
02
01
0/
13
14
#360000
0!
0-
#370000
1!
1-
1;!
0<!
0=!
1k
15
03
12
00
1.
11
1l
05
13
16
04
01
1/
1y
06
14
0z
04
0/
#380000
0!
0-
#390000
1!
1-
0;!
0{
0,
0k
03
0"
1z
0l
0y
0z
1/
#400000
0!
0-
#410000
1!
1-
1=!
10
0.
11
0/
#420000
0!
0-
#430000
1!
1-
1<!
0=!
02
00
1.
01
13
12
11
1/
03
14
04
#440000
0!
0-
#450000
1!
1-
1=!
10
0.
02
01
0/
13
14
#460000
0!
0-
#470000
1!
1-
1;!
0<!
0=!
1k
15
03
12
00
1.
11
1l
05
13
16
04
01
1/
1y
06
14
1z
04
0/
#480000
0!
0-
#490000
1!
1-
0;!
1{
1,
0k
03
1"
0z
0l
0y
1z
1/
#500000
0!
0-
#510000
1!
1-
1=!
10
0.
11
0/
#520000
0!
0-
#530000
1!
1-
1<!
0=!
02
00
1.
01
13
12
11
1/
03
14
04
#540000
0!
0-
#550000
1!
1-
1=!
10
0.
02
01
0/
13
14
#560000
0!
0-
#570000
1!
1-
1;!
0<!
0=!
1k
15
03
12
00
1.
11
1l
05
13
16
04
01
1/
1y
06
14
0z
04
0/
#580000
0!
0-
#590000
1!
1-
0;!
0{
0,
0k
03
0"
1z
0l
0y
0z
1/
#600000
0!
0-
#610000
1!
1-
1=!
10
0.
11
0/
#620000
0!
0-
#630000
1!
1-
1<!
0=!
02
00
1.
01
13
12
11
1/
03
14
04
#640000
0!
0-
#650000
1!
1-
1=!
10
0.
02
01
0/
13
14
#660000
0!
0-
#670000
1!
1-
1;!
0<!
0=!
1k
15
03
12
00
1.
11
1l
05
13
16
04
01
1/
1y
06
14
1z
04
0/
#680000
0!
0-
#690000
1!
1-
0;!
1{
1,
0k
03
1"
0z
0l
0y
1z
1/
#700000
0!
0-
#710000
1!
1-
1=!
10
0.
11
0/
#720000
0!
0-
#730000
1!
1-
1<!
0=!
02
00
1.
01
13
12
11
1/
03
14
04
#740000
0!
0-
#750000
1!
1-
1=!
10
0.
02
01
0/
13
14
#760000
0!
0-
#770000
1!
1-
1;!
0<!
0=!
1k
15
03
12
00
1.
11
1l
05
13
16
04
01
1/
1y
06
14
0z
04
0/
#780000
0!
0-
#790000
1!
1-
0;!
0{
0,
0k
03
0"
1z
0l
0y
0z
1/
#800000
0!
0-
#810000
1!
1-
1=!
10
0.
11
0/
#820000
0!
0-
#830000
1!
1-
1<!
0=!
02
00
1.
01
13
12
11
1/
03
14
04
#840000
0!
0-
#850000
1!
1-
1=!
10
0.
02
01
0/
13
14
#860000
0!
0-
#870000
1!
1-
1;!
0<!
0=!
1k
15
03
12
00
1.
11
1l
05
13
16
04
01
1/
1y
06
14
1z
04
0/
#880000
0!
0-
#890000
1!
1-
0;!
1{
1,
0k
03
1"
0z
0l
0y
1z
1/
#900000
0!
0-
#910000
1!
1-
1=!
10
0.
11
0/
#920000
0!
0-
#930000
1!
1-
1<!
0=!
02
00
1.
01
13
12
11
1/
03
14
04
#940000
0!
0-
#950000
1!
1-
1=!
10
0.
02
01
0/
13
14
#960000
0!
0-
#970000
1!
1-
1;!
0<!
0=!
1k
15
03
12
00
1.
11
1l
05
13
16
04
01
1/
1y
06
14
0z
04
0/
#980000
0!
0-
#990000
1!
1-
0;!
0{
0,
0k
03
0"
1z
0l
0y
0z
1/
